…
Create a table where you summarise monthly returns for each of the stocks and SPY; min, max, median, mean, SD.

summary_monthly_returns <- myStocks_returns_monthly %>% 
  summarise(min = min(monthly_returns), max = max(monthly_returns), median = median(monthly_returns), mean = mean(monthly_returns), SD = STDEV(monthly_returns)) %>% 
  arrange(desc(SD))
summary_monthly_returns

## # A tibble: 31 × 6
##    symbol    min   max median    mean     SD
##    <chr>   <dbl> <dbl>  <dbl>   <dbl>  <dbl>
##  1 AAPL   -0.577 0.454 0.0332 0.0267  0.115 
##  2 CRM    -0.360 0.403 0.0193 0.0259  0.110 
##  3 DOW    -0.276 0.255 0.0311 0.0153  0.109 
##  4 CSCO   -0.367 0.389 0.0124 0.00599 0.0962
##  5 INTC   -0.445 0.338 0.0124 0.00746 0.0955
##  6 GS     -0.275 0.312 0.0159 0.0108  0.0925
##  7 BA     -0.458 0.459 0.0170 0.0127  0.0925
##  8 AXP    -0.279 0.875 0.0109 0.0100  0.0920
##  9 CAT    -0.353 0.350 0.0133 0.0142  0.0898
## 10 JPM    -0.281 0.255 0.0161 0.0110  0.0868
## # … with 21 more rows
…
